<svg width="14" height="14" viewBox="0 0 14 14" fill="none" xmlns="http://www.w3.org/2000/svg">
<path fill-rule="evenodd" clip-rule="evenodd" d="M11.5025 1H13.25C13.3481 0.999175 13.4454 1.01777 13.5363 1.05472C13.6272 1.09167 13.7099 1.14624 13.7796 1.21529C13.8493 1.28433 13.9047 1.36649 13.9425 1.45703C13.9803 1.54757 13.9999 1.64469 14 1.74281V3.5H0V1.74281C0.000120215 1.64469 0.0196543 1.54757 0.0574768 1.45703C0.0952992 1.36649 0.150662 1.28433 0.220377 1.21529C0.290091 1.14624 0.372779 1.09167 0.463676 1.05472C0.554574 1.01777 0.651884 0.999175 0.75 1H2.4975V0H3.9975V1H10.0025V0H11.5025V1ZM0.21967 13.7803C0.0790177 13.6397 0 13.4489 0 13.25V4.5H14V13.25C14 13.4489 13.921 13.6397 13.7803 13.7803C13.6397 13.921 13.4489 14 13.25 14H0.75C0.551088 14 0.360322 13.921 0.21967 13.7803ZM10.0366 5.53661C10.0132 5.56005 10 5.59185 10 5.625V6.875C10 6.90815 10.0132 6.93995 10.0366 6.96339C10.0601 6.98683 10.0918 7 10.125 7H11.375C11.4082 7 11.4399 6.98683 11.4634 6.96339C11.4868 6.93995 11.5 6.90815 11.5 6.875V5.625C11.5 5.59185 11.4868 5.56005 11.4634 5.53661C11.4399 5.51317 11.4082 5.5 11.375 5.5H10.125C10.0918 5.5 10.0601 5.51317 10.0366 5.53661ZM10.0366 8.03661C10.0132 8.06005 10 8.09185 10 8.125V9.375C10 9.40815 10.0132 9.43995 10.0366 9.46339C10.0601 9.48683 10.0918 9.5 10.125 9.5H11.375C11.4082 9.5 11.4399 9.48683 11.4634 9.46339C11.4868 9.43995 11.5 9.40815 11.5 9.375V8.125C11.5 8.09185 11.4868 8.06005 11.4634 8.03661C11.4399 8.01317 11.4082 8 11.375 8H10.125C10.0918 8 10.0601 8.01317 10.0366 8.03661ZM7.53661 5.53661C7.51317 5.56005 7.5 5.59185 7.5 5.625V6.875C7.5 6.90815 7.51317 6.93995 7.53661 6.96339C7.56005 6.98683 7.59185 7 7.625 7H8.875C8.90815 7 8.93995 6.98683 8.96339 6.96339C8.98683 6.93995 9 6.90815 9 6.875V5.625C9 5.59185 8.98683 5.56005 8.96339 5.53661C8.93995 5.51317 8.90815 5.5 8.875 5.5H7.625C7.59185 5.5 7.56005 5.51317 7.53661 5.53661ZM7.53661 8.03661C7.51317 8.06005 7.5 8.09185 7.5 8.125V9.375C7.5 9.40815 7.51317 9.43995 7.53661 9.46339C7.56005 9.48683 7.59185 9.5 7.625 9.5H8.875C8.90815 9.5 8.93995 9.48683 8.96339 9.46339C8.98683 9.43995 9 9.40815 9 9.375V8.125C9 8.09185 8.98683 8.06005 8.96339 8.03661C8.93995 8.01317 8.90815 8 8.875 8H7.625C7.59185 8 7.56005 8.01317 7.53661 8.03661ZM7.53661 10.5366C7.51317 10.5601 7.5 10.5918 7.5 10.625V11.875C7.5 11.9082 7.51317 11.9399 7.53661 11.9634C7.56005 11.9868 7.59185 12 7.625 12H8.875C8.90815 12 8.93995 11.9868 8.96339 11.9634C8.98683 11.9399 9 11.9082 9 11.875V10.625C9 10.5918 8.98683 10.5601 8.96339 10.5366C8.93995 10.5132 8.90815 10.5 8.875 10.5H7.625C7.59185 10.5 7.56005 10.5132 7.53661 10.5366ZM5.03661 8.03661C5.01317 8.06005 5 8.09185 5 8.125V9.375C5 9.40815 5.01317 9.43995 5.03661 9.46339C5.06005 9.48683 5.09185 9.5 5.125 9.5H6.375C6.40815 9.5 6.43995 9.48683 6.46339 9.46339C6.48683 9.43995 6.5 9.40815 6.5 9.375V8.125C6.5 8.09185 6.48683 8.06005 6.46339 8.03661C6.43995 8.01317 6.40815 8 6.375 8H5.125C5.09185 8 5.06005 8.01317 5.03661 8.03661ZM5.03661 10.5366C5.01317 10.5601 5 10.5918 5 10.625V11.875C5 11.9082 5.01317 11.9399 5.03661 11.9634C5.06005 11.9868 5.09185 12 5.125 12H6.375C6.40815 12 6.43995 11.9868 6.46339 11.9634C6.48683 11.9399 6.5 11.9082 6.5 11.875V10.625C6.5 10.5918 6.48683 10.5601 6.46339 10.5366C6.43995 10.5132 6.40815 10.5 6.375 10.5H5.125C5.09185 10.5 5.06005 10.5132 5.03661 10.5366ZM2.53661 8.03661C2.51317 8.06005 2.5 8.09185 2.5 8.125V9.375C2.5 9.40815 2.51317 9.43995 2.53661 9.46339C2.56005 9.48683 2.59185 9.5 2.625 9.5H3.875C3.90815 9.5 3.93995 9.48683 3.96339 9.46339C3.98683 9.43995 4 9.40815 4 9.375V8.125C4 8.09185 3.98683 8.06005 3.96339 8.03661C3.93995 8.01317 3.90815 8 3.875 8H2.625C2.59185 8 2.56005 8.01317 2.53661 8.03661ZM2.53661 10.5366C2.51317 10.5601 2.5 10.5918 2.5 10.625V11.875C2.5 11.9082 2.51317 11.9399 2.53661 11.9634C2.56005 11.9868 2.59185 12 2.625 12H3.875C3.90815 12 3.93995 11.9868 3.96339 11.9634C3.98683 11.9399 4 11.9082 4 11.875V10.625C4 10.5918 3.98683 10.5601 3.96339 10.5366C3.93995 10.5132 3.90815 10.5 3.875 10.5H2.625C2.59185 10.5 2.56005 10.5132 2.53661 10.5366Z" fill="#D8D8D8"/>
</svg>
